281,237
281,240
280,246
279,257
277,263
275,276
274,284
270,295
274,300
267,307
266,303
266,301
260,302
258,299
252,299
253,299
240,306
233,307
229,310
221,310
215,313
206,313
201,312
190,315
182,319
173,319
168,316
159,320
157,317
147,321
143,319
135,318
129,317
124,316
112,320
109,316
101,321
93,319
95,315
100,312
98,310
95,309
96,309
104,306
95,309
97,312
101,314
93,321
99,309
93,308
82,327
95,313
87,325
95,316
95,314
94,313
94,312
94,317
90,316
88,314
