383,304
385,310
386,307
386,310
384,306
384,302
382,307
385,304
384,318
383,302
387,310
389,302
388,309
388,309
389,314
386,315
384,314
384,310
384,309
375,314
378,313
371,317
358,315
360,316
351,317
344,311
338,308
329,307
333,308
320,304
314,301
308,296
303,293
295,289
293,284
289,284
281,279
286,270
268,272
258,270
251,269
239,266
227,263
224,263
214,258
207,256
200,251
196,249
187,243
181,239
175,237
164,231
165,225
159,222
155,216
149,210
145,207
141,199
139,194
137,188
